Day,Month,Year,Count,CountSoFar,SleepTime,WakeTime,Duration,HeartRate,Water
1,4,2018,227,227,23:23,10:35,11:12,73,2
2,4,2018,875,1102,01:40,06:38,04:58,73,3
3,4,2018,2135,3237,00:16,10:35,10:19,78,5
4,4,2018,6984,10221,01:35,09:27,07:52,67,7
5,4,2018,10451,20672,23:23,06:25,07:02,77,1
6,4,2018,20003,40675,01:06,06:57,05:51,65,5
7,4,2018,502,41177,01:46,09:13,07:27,71,8
8,4,2018,250,41427,22:58,10:16,11:18,72,4
9,4,2018,433,41860,02:35,07:31,04:56,74,2
10,4,2018,249,42109,23:50,07:38,07:48,73,6
11,4,2018,250,42359,00:10,08:15,08:05,73,3
12,4,2018,4049,46408,22:50,07:37,08:47,69,8
13,4,2018,1950,48358,23:19,10:09,10:50,85,7
14,4,2018,25289,73647,01:53,06:12,04:19,71,5
15,4,2018,9419,83066,00:52,08:54,08:02,82,6
16,4,2018,19451,102517,02:32,09:30,06:58,86,2
17,4,2018,11703,114220,22:17,06:33,08:16,78,3
18,4,2018,11108,125328,22:34,06:03,07:29,76,6
19,4,2018,13561,138889,02:11,07:27,05:16,81,4
20,4,2018,27975,166864,00:16,07:16,07:00,85,5
21,4,2018,27844,194708,01:20,06:00,04:40,73,1
22,4,2018,10428,205136,01:13,10:02,08:49,67,8
23,4,2018,9506,214642,00:14,07:24,07:10,68,7
24,4,2018,9082,223724,23:32,08:41,09:09,66,6
25,4,2018,15717,239441,22:54,07:05,08:11,66,7
26,4,2018,14221,253662,23:19,06:14,06:55,65,3
27,4,2018,17619,271281,02:04,08:22,06:18,74,0
28,4,2018,13225,284506,01:08,09:20,08:12,68,5
29,4,2018,487,284993,22:10,09:50,11:40,67,8
30,4,2018,9957,294950,02:14,10:39,08:25,73,7
